  0
SECTION
  2
HEADER
  9
$ACADVER
  1
AC1009
  9
$INSBASE
 10
0.0
 20
0.0
 30
0.0
  9
$EXTMIN
 10
0.0
 20
0.0
 30
0.0
  9
$EXTMAX
 10
0.0
 20
0.0
 30
0.0
  0
ENDSEC
  0
SECTION
  2
TABLES
  0
TABLE
  2
VPORT
 70
0
  0
ENDTAB
  0
TABLE
  2
LTYPE
 70
1
  0
LTYPE
  2
CONTINUOUS
 70
0
  3
Solid line
 72
65
 73
0
 40
0.0
  0
ENDTAB
  0
TABLE
  2
LAYER
 70
1
  0
LAYER
  2
0
 70
64
 62
7
  6
continuous
  0
ENDTAB
  0
TABLE
  2
STYLE
 70
1
  0
STYLE
  2
STANDARD
 70
0
 40
0
 41
1.0
 50
0.0
 71
0
 42
1
 3
ARIAL.TTF
 4

  0
ENDTAB
  0
TABLE
  2
VIEW
 70
0
  0
ENDTAB
  0
ENDSEC
  0
SECTION
  2
BLOCKS
  0
BLOCK
  8
0
  2
FACE010
 70
0
 10
0.0
 20
0.0
 30
0.0
  3
FACE010
  0
LINE
  8
0
 62
0
 10
-2374.8999999999996
 20
25.4
 30
0.0
 11
-2374.8999999999996
 21
127.0
 31
0.0
  0
LINE
  8
0
 62
0
 10
-2374.8999999999996
 20
127.0
 30
0.0
 11
0.0
 21
127.0
 31
0.0
  0
LINE
  8
0
 62
0
 10
0.0
 20
127.0
 30
0.0
 11
0.0
 21
-127.0
 31
0.0
  0
LINE
  8
0
 62
0
 10
0.0
 20
-127.0
 30
0.0
 11
-2374.9
 21
-127.0
 31
0.0
  0
LINE
  8
0
 62
0
 10
-2374.9
 20
-127.0
 30
0.0
 11
-2374.9
 21
-25.400000000000006
 31
0.0
  0
LINE
  8
0
 62
0
 10
-2286.0
 20
-25.4
 30
0.0
 11
-2374.9
 21
-25.4
 31
0.0
  0
LINE
  8
0
 62
0
 10
-2286.0
 20
25.4
 30
0.0
 11
-2286.0
 21
-25.4
 31
0.0
  0
LINE
  8
0
 62
0
 10
-2374.8999999999996
 20
25.4
 30
0.0
 11
-2286.0
 21
25.4
 31
0.0
  0
ENDBLK
  0
ENDSEC
  0
SECTION
  2
ENTITIES
  0
INSERT
  2
FACE010
  8
0
 62
0
 10
0.0
 20
0.0
 30
0.0
  0
ENDSEC
  0
EOF
