  0
SECTION
  2
HEADER
  9
$ACADVER
  1
AC1009
  9
$INSBASE
 10
0.0
 20
0.0
 30
0.0
  9
$EXTMIN
 10
0.0
 20
0.0
 30
0.0
  9
$EXTMAX
 10
0.0
 20
0.0
 30
0.0
  0
ENDSEC
  0
SECTION
  2
TABLES
  0
TABLE
  2
VPORT
 70
0
  0
ENDTAB
  0
TABLE
  2
LTYPE
 70
1
  0
LTYPE
  2
CONTINUOUS
 70
0
  3
Solid line
 72
65
 73
0
 40
0.0
  0
ENDTAB
  0
TABLE
  2
LAYER
 70
1
  0
LAYER
  2
0
 70
64
 62
7
  6
continuous
  0
ENDTAB
  0
TABLE
  2
STYLE
 70
1
  0
STYLE
  2
STANDARD
 70
0
 40
0
 41
1.0
 50
0.0
 71
0
 42
1
 3
ARIAL.TTF
 4

  0
ENDTAB
  0
TABLE
  2
VIEW
 70
0
  0
ENDTAB
  0
ENDSEC
  0
SECTION
  2
BLOCKS
  0
BLOCK
  8
0
  2
FACE065
 70
0
 10
0.0
 20
0.0
 30
0.0
  3
FACE065
  0
LINE
  8
0
 62
0
 10
127.0
 20
-1219.2
 30
0.0
 11
-254.0
 21
-1219.2
 31
0.0
  0
LINE
  8
0
 62
0
 10
-254.0
 20
-1219.2
 30
0.0
 11
-254.0
 21
-1143.0
 31
0.0
  0
LINE
  8
0
 62
0
 10
-254.0
 20
-1143.0
 30
0.0
 11
127.0
 21
-914.4
 31
0.0
  0
LINE
  8
0
 62
0
 10
127.0
 20
-914.4000000000001
 30
0.0
 11
127.0
 21
-1219.2
 31
0.0
  0
CIRCLE
  8
0
 62
0
 10
88.9
 20
-1168.4
 30
0.0
 40
13.97
  0
CIRCLE
  8
0
 62
0
 10
-228.60000000000002
 20
-1200.15
 30
0.0
 40
7.62
  0
CIRCLE
  8
0
 62
0
 10
-136.55921768163137
 20
-1194.7287214378432
 30
0.0
 40
5.08
  0
CIRCLE
  8
0
 62
0
 10
-136.55921768163137
 20
-1175.6787214378433
 30
0.0
 40
5.08
  0
CIRCLE
  8
0
 62
0
 10
-168.30921768163137
 20
-1175.6787214378433
 30
0.0
 40
5.08
  0
CIRCLE
  8
0
 62
0
 10
-168.30921768163137
 20
-1194.7287214378432
 30
0.0
 40
5.08
  0
ENDBLK
  0
ENDSEC
  0
SECTION
  2
ENTITIES
  0
INSERT
  2
FACE065
  8
0
 62
0
 10
0.0
 20
0.0
 30
0.0
  0
ENDSEC
  0
EOF
