  0
SECTION
  2
HEADER
  9
$ACADVER
  1
AC1009
  9
$INSBASE
 10
0.0
 20
0.0
 30
0.0
  9
$EXTMIN
 10
0.0
 20
0.0
 30
0.0
  9
$EXTMAX
 10
0.0
 20
0.0
 30
0.0
  0
ENDSEC
  0
SECTION
  2
TABLES
  0
TABLE
  2
VPORT
 70
0
  0
ENDTAB
  0
TABLE
  2
LTYPE
 70
1
  0
LTYPE
  2
CONTINUOUS
 70
0
  3
Solid line
 72
65
 73
0
 40
0.0
  0
ENDTAB
  0
TABLE
  2
LAYER
 70
1
  0
LAYER
  2
0
 70
64
 62
7
  6
continuous
  0
ENDTAB
  0
TABLE
  2
STYLE
 70
1
  0
STYLE
  2
STANDARD
 70
0
 40
0
 41
1.0
 50
0.0
 71
0
 42
1
 3
ARIAL.TTF
 4

  0
ENDTAB
  0
TABLE
  2
VIEW
 70
0
  0
ENDTAB
  0
ENDSEC
  0
SECTION
  2
BLOCKS
  0
BLOCK
  8
0
  2
FACE066
 70
0
 10
0.0
 20
0.0
 30
0.0
  3
FACE066
  0
LINE
  8
0
 62
0
 10
-127.0
 20
1117.6
 30
0.0
 11
127.0
 21
1117.6
 31
0.0
  0
LINE
  8
0
 62
0
 10
127.0
 20
1117.6
 30
0.0
 11
127.0
 21
1422.3999999999999
 31
0.0
  0
LINE
  8
0
 62
0
 10
-127.0
 20
1422.4
 30
0.0
 11
127.0
 21
1422.4
 31
0.0
  0
LINE
  8
0
 62
0
 10
-127.0
 20
1117.6
 30
0.0
 11
-127.0
 21
1422.3999999999999
 31
0.0
  0
LINE
  8
0
 62
0
 10
8.89
 20
1272.8808114050858
 30
0.0
 11
8.89
 21
1374.480811405086
 31
0.0
  0
ARC
  8
0
 62
0
 10
25.400000000000006
 20
1374.4808114050857
 30
0.0
 40
16.51
 50
-0.0
 51
-180.0
  0
LINE
  8
0
 62
0
 10
41.91000000000001
 20
1272.8808114050858
 30
0.0
 11
41.91000000000001
 21
1374.4808114050857
 31
0.0
  0
ARC
  8
0
 62
0
 10
25.400000000000006
 20
1272.8808114050858
 30
0.0
 40
16.51
 50
-180.0
 51
-0.0
  0
LINE
  8
0
 62
0
 10
82.423
 20
1374.4808114050857
 30
0.0
 11
82.423
 21
1272.8808114050858
 31
0.0
  0
ARC
  8
0
 62
0
 10
74.803
 20
1272.8808114050858
 30
0.0
 40
7.62
 50
-180.0
 51
-0.0
  0
LINE
  8
0
 62
0
 10
67.183
 20
1374.4808114050857
 30
0.0
 11
67.183
 21
1272.8808114050858
 31
0.0
  0
ARC
  8
0
 62
0
 10
74.803
 20
1374.4808114050857
 30
0.0
 40
7.62
 50
-0.0
 51
-180.0
  0
LINE
  8
0
 62
0
 10
-16.38299999999998
 20
1374.4808114050857
 30
0.0
 11
-16.38299999999998
 21
1272.8808114050858
 31
0.0
  0
ARC
  8
0
 62
0
 10
-24.002999999999986
 20
1272.8808114050858
 30
0.0
 40
7.62
 50
-180.0
 51
-0.0
  0
LINE
  8
0
 62
0
 10
-31.62299999999999
 20
1374.4808114050857
 30
0.0
 11
-31.62299999999999
 21
1272.8808114050858
 31
0.0
  0
ARC
  8
0
 62
0
 10
-24.002999999999986
 20
1374.4808114050857
 30
0.0
 40
7.62
 50
-0.0
 51
-180.0
  0
ENDBLK
  0
ENDSEC
  0
SECTION
  2
ENTITIES
  0
INSERT
  2
FACE066
  8
0
 62
0
 10
0.0
 20
0.0
 30
0.0
  0
ENDSEC
  0
EOF
