  0
SECTION
  2
HEADER
  9
$ACADVER
  1
AC1009
  9
$INSBASE
 10
0.0
 20
0.0
 30
0.0
  9
$EXTMIN
 10
0.0
 20
0.0
 30
0.0
  9
$EXTMAX
 10
0.0
 20
0.0
 30
0.0
  0
ENDSEC
  0
SECTION
  2
TABLES
  0
TABLE
  2
VPORT
 70
0
  0
ENDTAB
  0
TABLE
  2
LTYPE
 70
1
  0
LTYPE
  2
CONTINUOUS
 70
0
  3
Solid line
 72
65
 73
0
 40
0.0
  0
ENDTAB
  0
TABLE
  2
LAYER
 70
1
  0
LAYER
  2
0
 70
64
 62
7
  6
continuous
  0
ENDTAB
  0
TABLE
  2
STYLE
 70
1
  0
STYLE
  2
STANDARD
 70
0
 40
0
 41
1.0
 50
0.0
 71
0
 42
1
 3
ARIAL.TTF
 4

  0
ENDTAB
  0
TABLE
  2
VIEW
 70
0
  0
ENDTAB
  0
ENDSEC
  0
SECTION
  2
BLOCKS
  0
BLOCK
  8
0
  2
PAD003
 70
0
 10
0.0
 20
0.0
 30
0.0
  3
PAD003
  0
LINE
  8
0
 62
0
 10
-355.6
 20
0.0
 30
0.0
 11
-457.2
 21
0.0
 31
0.0
  0
LINE
  8
0
 62
0
 10
-457.2
 20
0.0
 30
0.0
 11
-457.2
 21
177.8
 31
0.0
  0
ARC
  8
0
 62
0
 10
4.92266111976e-13
 20
177.8
 30
0.0
 40
457.2
 50
90.0
 51
-180.0
  0
LINE
  8
0
 62
0
 10
4.7596986112e-11
 20
635.0
 30
0.0
 11
127.0
 21
635.0
 31
0.0
  0
LINE
  8
0
 62
0
 10
127.0
 20
635.0
 30
0.0
 11
127.0
 21
533.4
 31
0.0
  0
LINE
  8
0
 62
0
 10
-3.6259103888e-11
 20
533.4
 30
0.0
 11
127.0
 21
533.4
 31
0.0
  0
ARC
  8
0
 62
0
 10
4.92266111976e-13
 20
177.8
 30
0.0
 40
355.6
 50
90.0
 51
-180.0
  0
LINE
  8
0
 62
0
 10
-355.6
 20
177.8
 30
0.0
 11
-355.6
 21
101.6
 31
0.0
  0
LINE
  8
0
 62
0
 10
-355.6
 20
101.6
 30
0.0
 11
-355.6
 21
0.0
 31
0.0
  0
ENDBLK
  0
ENDSEC
  0
SECTION
  2
ENTITIES
  0
INSERT
  2
PAD003
  8
0
 62
0
 10
0.0
 20
0.0
 30
0.0
  0
ENDSEC
  0
EOF
