  0
SECTION
  2
HEADER
  9
$ACADVER
  1
AC1009
  9
$INSBASE
 10
0.0
 20
0.0
 30
0.0
  9
$EXTMIN
 10
0.0
 20
0.0
 30
0.0
  9
$EXTMAX
 10
0.0
 20
0.0
 30
0.0
  0
ENDSEC
  0
SECTION
  2
TABLES
  0
TABLE
  2
VPORT
 70
0
  0
ENDTAB
  0
TABLE
  2
LTYPE
 70
1
  0
LTYPE
  2
CONTINUOUS
 70
0
  3
Solid line
 72
65
 73
0
 40
0.0
  0
ENDTAB
  0
TABLE
  2
LAYER
 70
1
  0
LAYER
  2
0
 70
64
 62
7
  6
continuous
  0
ENDTAB
  0
TABLE
  2
STYLE
 70
1
  0
STYLE
  2
STANDARD
 70
0
 40
0
 41
1.0
 50
0.0
 71
0
 42
1
 3
ARIAL.TTF
 4

  0
ENDTAB
  0
TABLE
  2
VIEW
 70
0
  0
ENDTAB
  0
ENDSEC
  0
SECTION
  2
BLOCKS
  0
BLOCK
  8
0
  2
SKETCH
 70
0
 10
0.0
 20
0.0
 30
0.0
  3
SKETCH
  0
LINE
  8
0
 62
174
 10
-126.003051531
 20
0.0
 30
0.0
 11
-126.003051531
 21
-27.9660778781
 31
0.0
  0
LINE
  8
0
 62
174
 10
-126.003051531
 20
-1.27675647832e-15
 30
0.0
 11
-125.884094781
 21
0.0689604348994
 31
0.0
  0
LINE
  8
0
 62
174
 10
-125.884094781
 20
0.0689604348994
 30
0.0
 11
-126.134859999
 21
0.501530435632
 31
0.0
  0
LINE
  8
0
 62
174
 10
-154.691525572
 20
-16.0530583024
 30
0.0
 11
-126.134859999
 21
0.501530435632
 31
0.0
  0
LINE
  8
0
 62
174
 10
-259.398497708
 20
164.566468632
 30
0.0
 11
-154.691525572
 21
-16.0530583024
 31
0.0
  0
LINE
  8
0
 62
174
 10
-259.398497708
 20
164.566468632
 30
0.0
 11
-230.841832135
 21
181.121057371
 31
0.0
  0
LINE
  8
0
 62
174
 10
-230.841832135
 20
181.121057371
 30
0.0
 11
-231.092597353
 21
181.553627371
 31
0.0
  0
LINE
  8
0
 62
174
 10
-231.092597353
 20
181.553627371
 30
0.0
 11
-231.957737354
 21
181.052096936
 31
0.0
  0
LINE
  8
0
 62
174
 10
-254.0
 20
219.075
 30
0.0
 11
-231.957737354
 21
181.052096936
 31
0.0
  0
LINE
  8
0
 62
174
 10
-286.008143797
 20
219.075
 30
0.0
 11
-254.0
 21
219.075
 31
0.0
  0
LINE
  8
0
 62
174
 10
-286.008143797
 20
571.5
 30
0.0
 11
-286.008143797
 21
219.075
 31
0.0
  0
LINE
  8
0
 62
174
 10
4.8275e-16
 20
571.5
 30
0.0
 11
-286.008143797
 21
571.5
 31
0.0
  0
LINE
  8
0
 62
174
 10
-1.56118585439e-14
 20
-27.9660778781
 30
0.0
 11
2.66137198059e-13
 21
571.5
 31
0.0
  0
LINE
  8
0
 62
174
 10
-126.003051531
 20
-27.9660778781
 30
0.0
 11
-1.42108547152e-14
 21
-27.9660778781
 31
0.0
  0
ENDBLK
  0
ENDSEC
  0
SECTION
  2
ENTITIES
  0
INSERT
  2
SKETCH
  8
0
 62
174
 10
0.0
 20
0.0
 30
0.0
  0
ENDSEC
  0
EOF
